{ "height":31,
 "layers":[
        {
         "data":[4, 22, 22, 22, 22, 22, 22, 22, 22, 22, 22, 22, 22, 5, 4, 22, 22, 22, 22, 22, 22, 22, 22, 22, 22, 22, 5, 13, 7, 6, 6, 6, 6, 6, 6, 6, 6, 6, 6, 6, 11, 13, 6, 6, 6, 6, 6, 6, 6, 6, 6, 6, 7, 11, 13, 6, 1, 2, 2, 3, 6, 1, 2, 2, 2, 3, 6, 11, 13, 6, 1, 2, 2, 3, 6, 1, 2, 2, 3, 6, 11, 13, 6, 11, 12, 12, 13, 6, 11, 12, 12, 12, 13, 6, 11, 13, 6, 11, 12, 12, 13, 6, 11, 12, 12, 13, 6, 11, 13, 6, 21, 22, 22, 23, 6, 21, 22, 22, 22, 23, 6, 21, 23, 6, 21, 22, 22, 23, 6, 21, 22, 22, 23, 6, 11, 13, 6, 6, 6, 6, 6, 6, 6, 6, 6, 6, 6, 6, 6, 6, 6, 6, 6, 6, 6, 6, 6, 6, 6, 6, 6, 11, 13, 6, 1, 2, 2, 3, 6, 1, 3, 6, 1, 2, 2, 2, 2, 2, 2, 3, 6, 1, 3, 6, 1, 2, 3, 6, 11, 13, 6, 21, 22, 22, 23, 6, 11, 13, 6, 21, 22, 22, 5, 4, 22, 22, 23, 6, 11, 13, 6, 21, 22, 23, 6, 11, 13, 6, 6, 6, 6, 6, 6, 11, 13, 6, 6, 6, 6, 11, 13, 6, 6, 6, 6, 11, 13, 6, 6, 6, 6, 6, 11, 14, 2, 2, 2, 2, 3, 6, 11, 14, 2, 2, 3, 6, 11, 13, 6, 1, 2, 2, 15, 13, 6, 1, 2, 2, 2, 15, 12, 12, 12, 12, 12, 13, 6, 11, 4, 22, 22, 23, 6, 21, 23, 6, 21, 22, 22, 5, 13, 6, 11, 12, 12, 12, 12, 12, 12, 12, 12, 12, 13, 6, 11, 13, 6, 6, 6, 6, 6, 6, 6, 6, 6, 6, 11, 13, 6, 11, 12, 12, 12, 12, 12, 12, 12, 12, 12, 13, 6, 11, 13, 6, 1, 2, 3, 0, 0, 1, 2, 3, 6, 11, 13, 6, 11, 12, 12, 12, 12, 22, 22, 22, 22, 22, 23, 6, 21, 23, 6, 11, 4, 23, 0, 0, 21, 5, 13, 6, 21, 23, 6, 21, 22, 22, 22, 22, 6, 6, 6, 6, 6, 6, 6, 6, 6, 6, 11, 13, 0, 0, 0, 0, 11, 13, 6, 6, 6, 6, 6, 6, 6, 6, 6, 2, 2, 2, 2, 2, 3, 6, 1, 3, 6, 11, 14, 2, 2, 2, 2, 15, 13, 6, 1, 3, 6, 1, 2, 2, 2, 2, 12, 12, 12, 12, 12, 13, 6, 11, 13, 6, 21, 22, 22, 22, 22, 22, 22, 23, 6, 11, 13, 6, 11, 12, 12, 12, 12, 12, 12, 12, 12, 12, 13, 6, 11, 13, 6, 6, 6, 6, 6, 6, 6, 6, 6, 6, 11, 13, 6, 11, 12, 12, 12, 12, 12, 12, 12, 12, 12, 13, 6, 11, 13, 6, 1, 2, 2, 2, 2, 2, 2, 3, 6, 11, 13, 6, 11, 12, 12, 12, 12, 4, 22, 22, 22, 22, 23, 6, 21, 23, 6, 21, 22, 22, 5, 4, 22, 22, 23, 6, 21, 23, 6, 21, 22, 22, 22, 5, 13, 6, 6, 6, 6, 6, 6, 6, 6, 6, 6, 6, 6, 11, 13, 6, 6, 6, 6, 6, 6, 6, 6, 6, 6, 6, 11, 13, 6, 1, 2, 2, 3, 6, 1, 2, 2, 2, 3, 6, 11, 13, 6, 1, 2, 2, 3, 6, 1, 2, 2, 3, 6, 11, 13, 6, 21, 22, 5, 13, 6, 21, 22, 22, 22, 23, 6, 21, 23, 6, 21, 22, 22, 23, 6, 11, 4, 22, 23, 6, 11, 13, 6, 6, 6, 11, 13, 6, 6, 6, 6, 6, 6, 6, 6, 6, 6, 6, 6, 6, 6, 6, 11, 13, 6, 6, 6, 11, 14, 2, 3, 6, 11, 13, 6, 1, 3, 6, 1, 2, 2, 2, 2, 2, 3, 6, 1, 3, 6, 11, 13, 6, 1, 2, 15, 4, 22, 23, 6, 21, 23, 6, 11, 13, 6, 21, 22, 22, 5, 4, 22, 23, 6, 11, 13, 6, 21, 23, 6, 21, 22, 5, 13, 6, 6, 6, 6, 6, 6, 11, 13, 6, 6, 6, 6, 11, 13, 6, 6, 6, 11, 13, 6, 6, 6, 6, 6, 6, 11, 13, 6, 1, 2, 2, 2, 2, 15, 14, 2, 2, 3, 6, 11, 13, 6, 1, 2, 15, 14, 2, 2, 2, 2, 3, 6, 11, 13, 6, 21, 22, 22, 22, 22, 22, 22, 22, 22, 23, 6, 21, 23, 6, 21, 22, 22, 22, 22, 22, 22, 22, 23, 6, 11, 13, 7, 6, 6, 6, 6, 6, 6, 6, 6, 6, 6, 6, 6, 6, 6, 6, 6, 6, 6, 6, 6, 6, 6, 6, 7, 11, 14, 2, 2, 2, 2, 2, 2, 2, 2, 2, 2, 2, 2, 2, 2, 2, 2, 2, 2, 2, 2, 2, 2, 2, 2, 2, 15],
         "height":31,
         "name":"collision",
         "opacity":1,
         "properties":
            {
             "collision":"true"
            },
         "type":"tilelayer",
         "visible":true,
         "width":27,
         "x":0,
         "y":0
        }],
 "nextobjectid":1,
 "orientation":"orthogonal",
 "properties":
    {

    },
 "renderorder":"right-down",
 "tileheight":32,
 "tilesets":[
        {
         "columns":10,
         "firstgid":1,
         "image":"..\/pacman3.png",
         "imageheight":96,
         "imagewidth":320,
         "margin":0,
         "name":"pacman3",
         "properties":
            {

            },
         "spacing":0,
         "terrains":[
                {
                 "name":"walls",
                 "tile":-1
                }],
         "tilecount":30,
         "tileheight":32,
         "tiles":
            {
             "0":
                {
                 "terrain":[-1, -1, -1, 0]
                },
             "1":
                {
                 "terrain":[-1, -1, 0, 0]
                },
             "10":
                {
                 "terrain":[-1, 0, -1, 0]
                },
             "11":
                {
                 "terrain":[0, 0, 0, 0]
                },
             "12":
                {
                 "terrain":[0, -1, 0, -1]
                },
             "13":
                {
                 "terrain":[0, -1, 0, 0]
                },
             "14":
                {
                 "terrain":[-1, 0, 0, 0]
                },
             "2":
                {
                 "terrain":[-1, -1, 0, -1]
                },
             "20":
                {
                 "terrain":[-1, 0, -1, -1]
                },
             "21":
                {
                 "terrain":[0, 0, -1, -1]
                },
             "22":
                {
                 "terrain":[0, -1, -1, -1]
                },
             "3":
                {
                 "terrain":[0, 0, 0, -1]
                },
             "4":
                {
                 "terrain":[0, 0, -1, 0]
                }
            },
         "tilewidth":32
        }],
 "tilewidth":32,
 "version":1,
 "width":27
}